﻿{
  "version": "1.0.0-*",
  "description": "MTracker.Services Class Library",
  "authors": [ "Lukas" ],
  "tags": [ "" ],
  "projectUrl": "",
  "licenseUrl": "",

  "dependencies": {
    "MTracker.DataAccess": "1.0.0-*",
    "MTracker.ServiceContracts": "1.0.0-*"
  },

  "frameworks": {
    "dnx451": { }
  }
}
