{
    "version": "1.0.0-*",
    "description": "MTracker.DataContracts Class Library",
    "authors": [ "Zaibas" ],
    "tags": [ "" ],
    "projectUrl": "",
    "licenseUrl": "",

    "frameworks": {
        "dnx451": { }
    },

  "dependencies": {
    "MTracker.DataEntities": "1.0.0-*"
  }
}
